…
# Problem 1

  - How many aisles are there, and which aisles are the most items
    ordered from?

There are 134 isles and most items are ordered from the fresh vegetables
aisle.

``` r
instacart %>% 
  count(aisle)
```

    ## # A tibble: 134 x 2
    ##    aisle                      n
    ##    <chr>                  <int>
    ##  1 air fresheners candles  1067
    ##  2 asian foods             7007
    ##  3 baby accessories         306
    ##  4 baby bath body care      328
    ##  5 baby food formula      13198
    ##  6 bakery desserts         1501
    ##  7 baking ingredients     13088
    ##  8 baking supplies decor   1094
    ##  9 beauty                   287
    ## 10 beers coolers           1839
    ## # … with 124 more rows
…
